Minhash and locality-sensitive hashing
…
## [1] 0.7163087

lsh_probability(h = 240, b =  80, s = 0.75)

## [1] 1

These numbers seem reasonable for our purposes, so we will set the number of minhashes at 240 and the number of bands at 80.

Now we can use the lsh() function to calculate the locality-sensitive hashes for our documents.

buckets <- lsh(corpus, bands = 80, progress = FALSE)
buckets

## # A tibble: 640 x 2
##    doc                buckets                         
##    <chr>              <chr>                           
##  1 calltounconv00baxt 94857bb94afab43e61fbdb7bc720d879
##  2 calltounconv00baxt a3b655b3a4da5b2615ad14b8b0a40c79
##  3 calltounconv00baxt 3a7dc2db81e921147904e776e51682c1
##  4 calltounconv00baxt d25c0330cfb7c5351c641b6fd66e9d9e
##  5 calltounconv00baxt 17d4e4e622ed0e22ada62b3021710f5c
##  6 calltounconv00baxt 6541b20eeb120392f7aa84e4efe000f9
##  7 calltounconv00baxt 5662312d987a1e8cfb39a8768e6373fa
##  8 calltounconv00baxt 36409960b62875444d6bc8b140d07a9d
##  9 calltounconv00baxt 239d06f6ef65a388dc2e3fa15a83fe3b
## 10 calltounconv00baxt 5fa1e53764fce4042dc15e56a1323b54
## # … with 630 more rows
…
